Plasma Analysis on PTSD Project
…
## # A tibble: 7 x 2
##    Freq number_id
##   <int>     <int>
## 1     1         7
## 2     5         2
## 3     6         1
## 4     8         1
## 5     9         6
## 6    10         8
## 7    11        15

# the obs for each subject
dat1%>% group_by(`id`)%>% summarise(Obs=n())%>%arrange(Obs)

## # A tibble: 40 x 2
##       id   Obs
##    <int> <int>
##  1   103     1
##  2   112     1
##  3   115     1
##  4   127     1
##  5   136     1
##  6   139     1
##  7   140     1
##  8   102     5
##  9   104     5
## 10   123     6
## # ... with 30 more rows
…
